<svg width="24" height="24" viewBox="0 0 24 24" fill="none" xmlns="http://www.w3.org/2000/svg">
<path d="M16.0005 21H8.00047C7.73525 21 7.4809 20.8946 7.29336 20.7071C7.10583 20.5196 7.00047 20.2652 7.00047 20V12.07L5.70047 13.07C5.31047 13.46 4.68047 13.46 4.29047 13.07L1.46047 10.29C1.07047 9.9 1.07047 9.27 1.46047 8.88L7.34047 3H9.00047C9.00047 4.1 10.3405 5 12.0005 5C13.6605 5 15.0005 4.1 15.0005 3H16.6605L22.5405 8.88C22.9305 9.27 22.9305 9.9 22.5405 10.29L19.7105 13.12C19.3205 13.5 18.6905 13.5 18.3005 13.12L17.0005 12.12V20C17.0005 20.2652 16.8951 20.5196 16.7076 20.7071C16.52 20.8946 16.2657 21 16.0005 21Z" fill="black"/>
</svg>
