<svg width="80" height="80" viewBox="0 0 80 80" fill="none" xmlns="http://www.w3.org/2000/svg">
<g clip-path="url(#clip0)">
<rect width="80" height="80" rx="40" fill="#D5EB2C"/>
<path d="M63.7575 19.1526C63.7575 21.0979 62.9913 22.8592 61.7521 24.1545C61.1272 24.8078 60.0195 24.4838 59.8325 23.5993C59.037 19.8343 57.0394 16.5257 54.2879 14.0846C53.6031 13.477 53.8822 12.3586 54.7693 12.1328C59.1422 11.0197 63.7575 14.2962 63.7575 19.1526ZM42.6241 11.919H35.816C27.3559 11.919 20.4977 18.7772 20.4977 27.2373C20.4977 39.1167 20.4956 38.4003 20.5021 38.553C20.5377 39.374 21.7743 39.3334 21.7743 38.5116V33.7617C21.7743 31.7171 23.5758 30.1154 25.6265 30.3874C32.4091 31.2858 39.3271 29.5551 44.9502 25.2445C47.1859 23.5315 50.4188 25.1292 50.425 27.9408C50.4278 28.0273 50.5073 29.5563 51.4703 30.135C51.9739 30.4385 52.5426 30.4215 52.8376 30.3846C54.8856 30.1272 56.6658 31.7344 56.6658 33.7617V38.5116C56.6658 39.3334 57.9021 39.374 57.9379 38.553C57.9448 38.3925 57.9423 27.0953 57.9423 27.2373C57.9423 18.7772 51.084 11.919 42.6241 11.919ZM53.1199 32.6355C52.5341 32.7093 51.3895 32.7348 50.3002 32.0809C48.167 30.7959 48.1556 27.9819 48.1556 27.9535C48.1617 27.0139 47.0792 26.4723 46.3302 27.0458C40.21 31.7377 32.6834 33.6112 25.3272 32.6369C24.6471 32.5474 24.0436 33.0749 24.0436 33.7617C24.0436 33.795 24.0428 41.928 24.045 41.9612C24.1741 50.2203 30.9326 56.8979 39.22 56.8979C47.5486 56.8979 54.3312 50.155 54.3964 41.8406V33.7617C54.3964 33.0912 53.8108 32.5511 53.1199 32.6355ZM47.3131 60.1402C46.2168 63.5173 42.8723 65.791 39.237 65.791C35.5507 65.791 32.3552 63.3216 31.1425 60.17C30.985 59.763 31.0843 59.3006 31.3879 58.9899C31.5568 58.8169 31.7043 58.6403 31.8329 58.4619C32.1288 58.0518 32.6659 57.8967 33.1397 58.0736C37.1274 59.5628 41.4794 59.5018 45.3013 58.0733C45.7751 57.8963 46.3132 58.0507 46.6085 58.4613C46.7393 58.6432 46.8895 58.8229 47.0621 58.9985C47.3557 59.2977 47.4436 59.7403 47.3131 60.1402ZM37.174 67.8598C33.4794 67.1367 30.4482 64.5323 29.093 61.1657C28.9256 60.7487 28.5441 60.4509 27.954 60.4509C21.4821 60.4509 16.2427 65.6903 16.2427 72.1622V78.8653C16.2427 79.492 16.7507 80 17.3774 80H36.9506C37.5773 80 38.0853 79.492 38.0853 78.8653V68.9827C38.0853 68.44 37.7066 67.964 37.174 67.8598ZM50.4406 60.4509C49.9527 60.4466 49.5158 60.7416 49.3485 61.1983C48.0659 64.6839 44.9165 67.174 41.2878 67.8654C40.7487 67.9681 40.3547 68.4325 40.3547 68.9813V78.8652C40.3547 79.4918 40.8627 79.9999 41.4894 79.9999H61.0627C61.6893 79.9999 62.1973 79.4918 62.1973 78.8652V72.1621C62.1973 65.9583 57.3125 60.5161 50.4406 60.4509Z" fill="black"/>
</g>
<defs>
<clipPath id="clip0">
<rect width="80" height="80" rx="40" fill="white"/>
</clipPath>
</defs>
</svg>
