<svg width="102" height="102" viewBox="0 0 102 102" fill="none" xmlns="http://www.w3.org/2000/svg">
<path d="M51 100C78.062 100 100 78.062 100 51C100 23.938 78.062 2 51 2C23.938 2 2 23.938 2 51C2 78.062 23.938 100 51 100Z" stroke="black" stroke-width="3" stroke-linecap="round" stroke-linejoin="round"/>
<path d="M50.9999 67.3333C62.2757 67.3333 71.4166 58.1925 71.4166 46.9167C71.4166 35.6409 62.2757 26.5 50.9999 26.5C39.7241 26.5 30.5833 35.6409 30.5833 46.9167C30.5833 58.1925 39.7241 67.3333 50.9999 67.3333Z" stroke="black" stroke-width="3" stroke-linecap="round" stroke-linejoin="round"/>
<path d="M18.231 87.4304C21.3068 81.3831 25.996 76.3048 31.7796 72.7577C37.5632 69.2107 44.2155 67.3333 51.0001 67.3333C57.7847 67.3332 64.4371 69.2107 70.2207 72.7577C76.0042 76.3047 80.6935 81.3829 83.7694 87.4303" stroke="black" stroke-width="3" stroke-linecap="round" stroke-linejoin="round"/>
</svg>
